Year,Total,Amount
2004,23829,1656
2005,17619,2161
2006,9177,1804
2007,6858,1112
2008,8810,1518
2009,12851,2129
2010,15220,2224
2011,13423,2561
2012,13441,4813
2013,12050,4227
2014,9338,2946